[
  {
    "name": "Geekfem",
    "city": "Hamburg",
    "coords": [10, 53.55],
    "img": "/markers/marker-haecksen.png",
    "contacts": [
      {
        "title": "Website von Geekfem",
        "url": "https://geekfem.net",
        "value": "//geekfem.net"
      },
      {
        "title": "Geekfem bei Twitter",
        "url": "https://twitter.com/geekfem_",
        "value": "@geekfem_"
      }
    ]
  },
  {
    "name": "Haecksen@entropia",
    "city": "Karlsruhe",
    "coords": [8.403760, 49.008090],
    "img": "/markers/marker-haecksen.png",
    "contacts": [
      {
        "title": "Website",
        "url": "https://entropia.de/Haecksen@entropia",
        "value": "//entropia.de/Haecksen@entropia"
      }
    ]
  },
  {
    "name": "Haecksen Berlin",
    "city": "Berlin",
    "coords": [13, 52.50],
    "img": "/markers/marker-haecksen.png",
    "contacts": []
  },
  {
    "name": "Haecksen Frankfurt",
    "city": "Frankfurt",
    "coords": [8.679490, 50.110882],
    "img": "/markers/marker-haecksen.png",
    "contacts": []
  },
  {
    "name": "Haecksen Bamberg",
    "city": "Bamberg",
    "coords": [10.885530, 49.894218],
    "img": "/markers/marker-haecksen.png",
    "contacts": [
      {
        "title": "Haecksen Bamberg bei Twitter",
        "url": "https://twitter.com/HaecksenB",
        "value": "@HaecksenB"
      }
    ]
  },
  {
    "name": "FINT* Stammtisch",
    "city": "Darmstadt",
    "coords": [8.650900, 49.872360],
    "img": "/markers/marker.png",
    "contacts": [
      {
        "title": "Termine des Stammtisches",
        "url": "https://www.chaos-darmstadt.de/termine.html",
        "value": "//www.chaos-darmstadt.de/termine.html"
      }
    ]
  },
  {
    "name": "Haecksen Göttingen",
    "city": "Göttingen",
    "coords": [9.928440, 51.532600],
    "img": "/markers/marker-haecksen.png",
    "contacts": [
      {
        "title": "Website von Haecksen in Göttingen",
        "url": "https://cccgoe.de/wiki/Haecksen",
        "value": "//cccgoe.de/wiki/Haecksen"
      }
    ]
  },
  {
    "name": "Haecksen Stuttgart",
    "city": "Stuttgart",
    "coords": [9.180770 , 48.777111],
    "img": "/markers/marker-haecksen.png",
    "contacts": []
  },
  {
    "name": "Treffen in Bielefeld",
    "city": "Bielefeld",
    "coords": [8.533 , 52.023],
    "img": "/markers/marker.png",
    "contacts": []
  }
]